{
  "0": {
    "name": "overworld",
    "distance": 0,
    "groups": [
      "netherOv"
    ],
    "milkyWayOrigins": {}
  },
  "-1": {
    "name": "the_nether",
    "distance": 5,
    "groups": [
      "netherOv"
    ],
    "milkyWayOrigins": {
      "NORMAL": 2
    }
  },
  "1024": {
    "name": "planet",
    "distance": 5120,
    "groups": [],
    "milkyWayOrigins": {}
  },
  "1": {
    "name": "the_end",
    "distance": 10,
    "groups": [],
    "milkyWayOrigins": {
      "NORMAL": 1
    }
  },
  "-2": {
    "name": "space",
    "distance": -10,
    "groups": [],
    "milkyWayOrigins": {}
  },
  "1025": {
    "name": "planet",
    "distance": 5125,
    "groups": [],
    "milkyWayOrigins": {}
  },
  "2": {
    "name": "Storage Cell",
    "distance": 10,
    "groups": [],
    "milkyWayOrigins": {}
  },
  "1026": {
    "name": "planet",
    "distance": 5130,
    "groups": [],
    "milkyWayOrigins": {}
  },
  "3": {
    "name": "TENT",
    "distance": 15,
    "groups": [],
    "milkyWayOrigins": {}
  },
  "1027": {
    "name": "planet",
    "distance": 5135,
    "groups": [],
    "milkyWayOrigins": {}
  },
  "1028": {
    "name": "planet",
    "distance": 5140,
    "groups": [],
    "milkyWayOrigins": {}
  },
  "1029": {
    "name": "planet",
    "distance": 5145,
    "groups": [],
    "milkyWayOrigins": {}
  },
  "1030": {
    "name": "planet",
    "distance": 5150,
    "groups": [],
    "milkyWayOrigins": {}
  },
  "7": {
    "name": "twilight_forest",
    "distance": 35,
    "groups": [],
    "milkyWayOrigins": {}
  },
  "1031": {
    "name": "planet",
    "distance": 5155,
    "groups": [],
    "milkyWayOrigins": {}
  },
  "1032": {
    "name": "planet",
    "distance": 5160,
    "groups": [],
    "milkyWayOrigins": {}
  },
  "1033": {
    "name": "planet",
    "distance": 5165,
    "groups": [],
    "milkyWayOrigins": {}
  },
  "1034": {
    "name": "planet",
    "distance": 5170,
    "groups": [],
    "milkyWayOrigins": {}
  },
  "1035": {
    "name": "planet",
    "distance": 5175,
    "groups": [],
    "milkyWayOrigins": {}
  },
  "1036": {
    "name": "planet",
    "distance": 5180,
    "groups": [],
    "milkyWayOrigins": {}
  },
  "1037": {
    "name": "planet",
    "distance": 5185,
    "groups": [],
    "milkyWayOrigins": {}
  },
  "1038": {
    "name": "planet",
    "distance": 5190,
    "groups": [],
    "milkyWayOrigins": {}
  },
  "1039": {
    "name": "planet",
    "distance": 5195,
    "groups": [],
    "milkyWayOrigins": {}
  },
  "1040": {
    "name": "planet",
    "distance": 5200,
    "groups": [],
    "milkyWayOrigins": {}
  },
  "1041": {
    "name": "planet",
    "distance": 5205,
    "groups": [],
    "milkyWayOrigins": {}
  },
  "1042": {
    "name": "planet",
    "distance": 5210,
    "groups": [],
    "milkyWayOrigins": {}
  },
  "1043": {
    "name": "planet",
    "distance": 5215,
    "groups": [],
    "milkyWayOrigins": {}
  },
  "19": {
    "name": "thaumictinkererbedrockworld",
    "distance": 95,
    "groups": [],
    "milkyWayOrigins": {}
  },
  "20": {
    "name": "betweenlands",
    "distance": 100,
    "groups": [],
    "milkyWayOrigins": {}
  },
  "1044": {
    "name": "planet",
    "distance": 5220,
    "groups": [],
    "milkyWayOrigins": {}
  },
  "1045": {
    "name": "planet",
    "distance": 5225,
    "groups": [],
    "milkyWayOrigins": {}
  },
  "1046": {
    "name": "planet",
    "distance": 5230,
    "groups": [],
    "milkyWayOrigins": {}
  },
  "1047": {
    "name": "planet",
    "distance": 5235,
    "groups": [],
    "milkyWayOrigins": {}
  },
  "1048": {
    "name": "planet",
    "distance": 5240,
    "groups": [],
    "milkyWayOrigins": {}
  },
  "1049": {
    "name": "planet",
    "distance": 5245,
    "groups": [],
    "milkyWayOrigins": {}
  },
  "1050": {
    "name": "planet",
    "distance": 5250,
    "groups": [],
    "milkyWayOrigins": {}
  },
  "1051": {
    "name": "planet",
    "distance": 5255,
    "groups": [],
    "milkyWayOrigins": {}
  },
  "1052": {
    "name": "planet",
    "distance": 5260,
    "groups": [],
    "milkyWayOrigins": {}
  },
  "1053": {
    "name": "planet",
    "distance": 5265,
    "groups": [],
    "milkyWayOrigins": {}
  },
  "1054": {
    "name": "planet",
    "distance": 5270,
    "groups": [],
    "milkyWayOrigins": {}
  },
  "1055": {
    "name": "planet",
    "distance": 5275,
    "groups": [],
    "milkyWayOrigins": {}
  },
  "1056": {
    "name": "planet",
    "distance": 5280,
    "groups": [],
    "milkyWayOrigins": {}
  },
  "1057": {
    "name": "planet",
    "distance": 5285,
    "groups": [],
    "milkyWayOrigins": {}
  },
  "1058": {
    "name": "planet",
    "distance": 5290,
    "groups": [],
    "milkyWayOrigins": {}
  },
  "1059": {
    "name": "planet",
    "distance": 5295,
    "groups": [],
    "milkyWayOrigins": {}
  },
  "1060": {
    "name": "planet",
    "distance": 5300,
    "groups": [],
    "milkyWayOrigins": {}
  },
  "1061": {
    "name": "planet",
    "distance": 5305,
    "groups": [],
    "milkyWayOrigins": {}
  },
  "1062": {
    "name": "planet",
    "distance": 5310,
    "groups": [],
    "milkyWayOrigins": {}
  },
  "1063": {
    "name": "planet",
    "distance": 5315,
    "groups": [],
    "milkyWayOrigins": {}
  },
  "1064": {
    "name": "planet",
    "distance": 5320,
    "groups": [],
    "milkyWayOrigins": {}
  },
  "1065": {
    "name": "planet",
    "distance": 5325,
    "groups": [],
    "milkyWayOrigins": {}
  },
  "1066": {
    "name": "planet",
    "distance": 5330,
    "groups": [],
    "milkyWayOrigins": {}
  },
  "1067": {
    "name": "planet",
    "distance": 5335,
    "groups": [],
    "milkyWayOrigins": {}
  },
  "1068": {
    "name": "planet",
    "distance": 5340,
    "groups": [],
    "milkyWayOrigins": {}
  },
  "1069": {
    "name": "planet",
    "distance": 5345,
    "groups": [],
    "milkyWayOrigins": {}
  },
  "1070": {
    "name": "planet",
    "distance": 5350,
    "groups": [],
    "milkyWayOrigins": {}
  },
  "1071": {
    "name": "planet",
    "distance": 5355,
    "groups": [],
    "milkyWayOrigins": {}
  },
  "1072": {
    "name": "planet",
    "distance": 5360,
    "groups": [],
    "milkyWayOrigins": {}
  },
  "-50": {
    "name": "cavern",
    "distance": -250,
    "groups": [],
    "milkyWayOrigins": {}
  },
  "1073": {
    "name": "planet",
    "distance": 5365,
    "groups": [],
    "milkyWayOrigins": {}
  },
  "-51": {
    "name": "huge_cavern",
    "distance": -255,
    "groups": [],
    "milkyWayOrigins": {}
  },
  "50": {
    "name": "The Abyssal Wasteland",
    "distance": 250,
    "groups": [],
    "milkyWayOrigins": {}
  },
  "1074": {
    "name": "planet",
    "distance": 5370,
    "groups": [],
    "milkyWayOrigins": {}
  },
  "-52": {
    "name": "aqua_cavern",
    "distance": -260,
    "groups": [],
    "milkyWayOrigins": {}
  },
  "1075": {
    "name": "planet",
    "distance": 5375,
    "groups": [],
    "milkyWayOrigins": {}
  },
  "51": {
    "name": "The Dreadlands",
    "distance": 255,
    "groups": [],
    "milkyWayOrigins": {}
  },
  "-53": {
    "name": "caveland",
    "distance": -265,
    "groups": [],
    "milkyWayOrigins": {}
  },
  "52": {
    "name": "Omothol",
    "distance": 260,
    "groups": [],
    "milkyWayOrigins": {}
  },
  "1076": {
    "name": "planet",
    "distance": 5380,
    "groups": [],
    "milkyWayOrigins": {}
  },
  "53": {
    "name": "The Dark Realm",
    "distance": 265,
    "groups": [],
    "milkyWayOrigins": {}
  },
  "-54": {
    "name": "cavenia",
    "distance": -270,
    "groups": [],
    "milkyWayOrigins": {}
  },
  "1077": {
    "name": "planet",
    "distance": 5385,
    "groups": [],
    "milkyWayOrigins": {}
  },
  "-55": {
    "name": "frost_mountains",
    "distance": -275,
    "groups": [],
    "milkyWayOrigins": {}
  },
  "1078": {
    "name": "planet",
    "distance": 5390,
    "groups": [],
    "milkyWayOrigins": {}
  },
  "-56": {
    "name": "wide_desert",
    "distance": -280,
    "groups": [],
    "milkyWayOrigins": {}
  },
  "1079": {
    "name": "planet",
    "distance": 5395,
    "groups": [],
    "milkyWayOrigins": {}
  },
  "312": {
    "name": "pocket",
    "distance": 1560,
    "groups": [],
    "milkyWayOrigins": {}
  },
  "-57": {
    "name": "the_void",
    "distance": -285,
    "groups": [],
    "milkyWayOrigins": {}
  },
  "1080": {
    "name": "planet",
    "distance": 5400,
    "groups": [],
    "milkyWayOrigins": {}
  },
  "-58": {
    "name": "dark_forest",
    "distance": -290,
    "groups": [],
    "milkyWayOrigins": {}
  },
  "1081": {
    "name": "planet",
    "distance": 5405,
    "groups": [],
    "milkyWayOrigins": {}
  },
  "-59": {
    "name": "crown_cliffs",
    "distance": -295,
    "groups": [],
    "milkyWayOrigins": {}
  },
  "1082": {
    "name": "planet",
    "distance": 5410,
    "groups": [],
    "milkyWayOrigins": {}
  },
  "1083": {
    "name": "planet",
    "distance": 5415,
    "groups": [],
    "milkyWayOrigins": {}
  },
  "-60": {
    "name": "skyland",
    "distance": -300,
    "groups": [],
    "milkyWayOrigins": {}
  },
  "1084": {
    "name": "planet",
    "distance": 5420,
    "groups": [],
    "milkyWayOrigins": {}
  },
  "1085": {
    "name": "planet",
    "distance": 5425,
    "groups": [],
    "milkyWayOrigins": {}
  },
  "1086": {
    "name": "planet",
    "distance": 5430,
    "groups": [],
    "milkyWayOrigins": {}
  },
  "1087": {
    "name": "planet",
    "distance": 5435,
    "groups": [],
    "milkyWayOrigins": {}
  },
  "1088": {
    "name": "planet",
    "distance": 5440,
    "groups": [],
    "milkyWayOrigins": {}
  },
  "1089": {
    "name": "planet",
    "distance": 5445,
    "groups": [],
    "milkyWayOrigins": {}
  },
  "1090": {
    "name": "planet",
    "distance": 5450,
    "groups": [],
    "milkyWayOrigins": {}
  },
  "1091": {
    "name": "planet",
    "distance": 5455,
    "groups": [],
    "milkyWayOrigins": {}
  },
  "1092": {
    "name": "planet",
    "distance": 5460,
    "groups": [],
    "milkyWayOrigins": {}
  },
  "1093": {
    "name": "planet",
    "distance": 5465,
    "groups": [],
    "milkyWayOrigins": {}
  },
  "1094": {
    "name": "planet",
    "distance": 5470,
    "groups": [],
    "milkyWayOrigins": {}
  },
  "1095": {
    "name": "planet",
    "distance": 5475,
    "groups": [],
    "milkyWayOrigins": {}
  },
  "1096": {
    "name": "planet",
    "distance": 5480,
    "groups": [],
    "milkyWayOrigins": {}
  },
  "1097": {
    "name": "planet",
    "distance": 5485,
    "groups": [],
    "milkyWayOrigins": {}
  },
  "1098": {
    "name": "planet",
    "distance": 5490,
    "groups": [],
    "milkyWayOrigins": {}
  },
  "1099": {
    "name": "planet",
    "distance": 5495,
    "groups": [],
    "milkyWayOrigins": {}
  },
  "1100": {
    "name": "planet",
    "distance": 5500,
    "groups": [],
    "milkyWayOrigins": {}
  },
  "1101": {
    "name": "planet",
    "distance": 5505,
    "groups": [],
    "milkyWayOrigins": {}
  },
  "1102": {
    "name": "planet",
    "distance": 5510,
    "groups": [],
    "milkyWayOrigins": {}
  },
  "1103": {
    "name": "planet",
    "distance": 5515,
    "groups": [],
    "milkyWayOrigins": {}
  },
  "1104": {
    "name": "planet",
    "distance": 5520,
    "groups": [],
    "milkyWayOrigins": {}
  },
  "14676": {
    "name": "emptiness",
    "distance": 73380,
    "groups": [],
    "milkyWayOrigins": {}
  },
  "111": {
    "name": "lostcities",
    "distance": 555,
    "groups": [],
    "milkyWayOrigins": {}
  },
  "117": {
    "name": "nc_wasteland",
    "distance": 585,
    "groups": [],
    "milkyWayOrigins": {}
  },
  "1000": {
    "name": "planet",
    "distance": 5000,
    "groups": [],
    "milkyWayOrigins": {}
  },
  "1002": {
    "name": "planet",
    "distance": 5010,
    "groups": [],
    "milkyWayOrigins": {}
  },
  "1003": {
    "name": "planet",
    "distance": 5015,
    "groups": [],
    "milkyWayOrigins": {}
  },
  "1004": {
    "name": "planet",
    "distance": 5020,
    "groups": [],
    "milkyWayOrigins": {}
  },
  "1005": {
    "name": "planet",
    "distance": 5025,
    "groups": [],
    "milkyWayOrigins": {}
  },
  "1006": {
    "name": "planet",
    "distance": 5030,
    "groups": [],
    "milkyWayOrigins": {}
  },
  "1007": {
    "name": "planet",
    "distance": 5035,
    "groups": [],
    "milkyWayOrigins": {}
  },
  "1008": {
    "name": "planet",
    "distance": 5040,
    "groups": [],
    "milkyWayOrigins": {}
  },
  "1009": {
    "name": "planet",
    "distance": 5045,
    "groups": [],
    "milkyWayOrigins": {}
  },
  "1010": {
    "name": "planet",
    "distance": 5050,
    "groups": [],
    "milkyWayOrigins": {}
  },
  "1011": {
    "name": "planet",
    "distance": 5055,
    "groups": [],
    "milkyWayOrigins": {}
  },
  "499": {
    "name": "Defiled Lands",
    "distance": 2495,
    "groups": [],
    "milkyWayOrigins": {}
  },
  "1012": {
    "name": "planet",
    "distance": 5060,
    "groups": [],
    "milkyWayOrigins": {}
  },
  "500": {
    "name": "Defiled Lands",
    "distance": 2500,
    "groups": [],
    "milkyWayOrigins": {}
  },
  "1013": {
    "name": "planet",
    "distance": 5065,
    "groups": [],
    "milkyWayOrigins": {}
  },
  "1014": {
    "name": "planet",
    "distance": 5070,
    "groups": [],
    "milkyWayOrigins": {}
  },
  "1015": {
    "name": "planet",
    "distance": 5075,
    "groups": [],
    "milkyWayOrigins": {}
  },
  "1016": {
    "name": "planet",
    "distance": 5080,
    "groups": [],
    "milkyWayOrigins": {}
  },
  "1017": {
    "name": "planet",
    "distance": 5085,
    "groups": [],
    "milkyWayOrigins": {}
  },
  "1018": {
    "name": "planet",
    "distance": 5090,
    "groups": [],
    "milkyWayOrigins": {}
  },
  "1019": {
    "name": "planet",
    "distance": 5095,
    "groups": [],
    "milkyWayOrigins": {}
  },
  "1020": {
    "name": "planet",
    "distance": 5100,
    "groups": [],
    "milkyWayOrigins": {}
  },
  "1021": {
    "name": "planet",
    "distance": 5105,
    "groups": [],
    "milkyWayOrigins": {}
  },
  "1022": {
    "name": "planet",
    "distance": 5110,
    "groups": [],
    "milkyWayOrigins": {}
  },
  "1023": {
    "name": "planet",
    "distance": 5115,
    "groups": [],
    "milkyWayOrigins": {}
  }
}